{
  "bug_list": "",
  "bug_search_url": "",
  "channel": "ESR",
  "created": "2023-05-02T13:27:07.743336+00:00",
  "is_public": false,
  "modified": "2023-05-02T13:27:30.303833+00:00",
  "notes": [
    {
      "bug": null,
      "created": "2023-05-02T13:27:28.584441+00:00",
      "id": 789505,
      "is_public": true,
      "modified": "2023-05-02T13:28:41.223293+00:00",
      "note": "Various [security fixes][1] and other quality improvements.\r\n\r\n\r\n[1]: https://www.mozilla.org/security/advisories/mfsa2023-17",
      "sort_num": 0,
      "tag": "Fixed"
    }
  ],
  "product": "Firefox Extended Support Release",
  "release_date": "2023-05-09",
  "slug": "firefox-102.11.0-esr",
  "system_requirements": "## Windows\r\n\r\n### Operating Systems (32-bit and 64-bit)\r\n - Windows 7 or later\r\n\r\n### Recommended Hardware\r\n-  Pentium 4 or newer processor that supports SSE2\r\n-  512MB of RAM / 2GB of RAM for the 64-bit version\r\n-  200MB of hard drive space\r\n\r\n---\r\n\r\n## Mac\r\n\r\n### Operating Systems\r\n- macOS 10.12 or later\r\n\r\n### Recommended Hardware\r\n- Mac computer with an Intel x86 or Apple silicon processor\r\n- 512 MB of RAM\r\n- 200 MB hard drive space\r\n\r\n---\r\n\r\n## GNU/Linux\r\n\r\n### Software Requirements\r\n\r\n*Please note that GNU/Linux distributors may provide packages for your distribution which have different requirements.*\r\n\r\n- Firefox will not run at all without the following libraries or packages:\r\n    - GTK+ 3.14 or higher\r\n    - X.Org 1.0 or higher (1.7 or higher is recommended)\r\n    - libstdc++ 4.8.1 or higher\r\n    - glibc 2.17 or higher\r\n- For optimal functionality, we recommend the following libraries or packages:\r\n    - NetworkManager 0.7 or higher\r\n    - DBus 1.0 or higher\r\n    - GNOME 2.16 or higher\r\n    - PulseAudio",
  "text": "",
  "title": "Firefox Extended Support Release 102.11.0 ESR",
  "version": "102.11.0"
}